{
    "fluentMethods": true,
    "relationships": [
        {
            "relationshipName": "subject",
            "otherEntityName": "subject",
            "relationshipType": "many-to-one",
            "otherEntityField": "id"
        },
        {
            "relationshipType": "many-to-one",
            "relationshipName": "profile",
            "otherEntityName": "profile",
            "otherEntityField": "id"
        },
        {
            "relationshipName": "publication",
            "otherEntityName": "publication",
            "relationshipType": "many-to-one",
            "otherEntityField": "id"
        }
    ],
    "fields": [
        {
            "fieldName": "content",
            "fieldType": "String"
        },
        {
            "fieldName": "creationDate",
            "fieldType": "ZonedDateTime"
        },
        {
            "fieldName": "state",
            "fieldType": "Long"
        }
    ],
    "changelogDate": "20170615165358",
    "dto": "no",
    "service": "no",
    "entityTableName": "comment",
    "pagination": "infinite-scroll"
}
