{
    "fluentMethods": true,
    "relationships": [],
    "fields": [{
            "fieldName": "firstName",
            "fieldType": "String"
        },
        {
            "fieldName": "lastName",
            "fieldType": "String"
        },
        {
            "fieldName": "content",
            "fieldType": "byte[]",
            "fieldTypeBlobContent": "text"
        },
        {
            "fieldName": "creationDate",
            "fieldType": "ZonedDateTime"
        },
        {
            "fieldName": "email",
            "fieldType": "String"
        }
    ],
    "changelogDate": "20170615165354",
    "dto": "no",
    "service": "no",
    "entityTableName": "form",
    "pagination": "no"
}