{
    "fluentMethods": true,
    "relationships": [
        {
            "relationshipType": "one-to-one",
            "relationshipName": "image",
            "otherEntityName": "image",
            "otherEntityField": "id",
            "ownerSide": true,
            "otherEntityRelationshipName": "partner"
        }
    ],
    "fields": [
        {
            "fieldName": "name",
            "fieldType": "String"
        }
    ],
    "changelogDate": "20170615165352",
    "entityTableName": "partner",
    "dto": "no",
    "pagination": "no",
    "service": "no"
}