{
    "fluentMethods": true,
    "relationships": [],
    "fields": [
        {
            "fieldName": "question",
            "fieldType": "byte[]",
            "fieldTypeBlobContent": "text"
        },
        {
            "fieldName": "answer",
            "fieldType": "byte[]",
            "fieldTypeBlobContent": "text"
        },
        {
            "fieldName": "lang",
            "fieldType": "Integer"
        }
    ],
    "changelogDate": "20170731150646",
    "dto": "no",
    "service": "no",
    "entityTableName": "qanda",
    "pagination": "no"
}
